%YAML 1.1
%TAG !u! tag:unity3d.com,2011:
--- !u!1 &7682916214724032979
GameObject:
  m_ObjectHideFlags: 0
  m_CorrespondingSourceObject: {fileID: 0}
  m_PrefabInstance: {fileID: 0}
  m_PrefabAsset: {fileID: 0}
  serializedVersion: 6
  m_Component:
  - component: {fileID: 1234965010594345750}
  - component: {fileID: 8946952690140862010}
  - component: {fileID: 5908778609051614236}
  m_Layer: 3
  m_Name: UnitMelleeWarrior_Lvl_1
  m_TagString: Untagged
  m_Icon: {fileID: 0}
  m_NavMeshLayer: 0
  m_StaticEditorFlags: 0
  m_IsActive: 1
--- !u!4 &1234965010594345750
Transform:
  m_ObjectHideFlags: 0
  m_CorrespondingSourceObject: {fileID: 0}
  m_PrefabInstance: {fileID: 0}
  m_PrefabAsset: {fileID: 0}
  m_GameObject: {fileID: 7682916214724032979}
  m_LocalRotation: {x: -0, y: -0, z: -0, w: 1}
  m_LocalPosition: {x: 0, y: 0, z: 5}
  m_LocalScale: {x: 1, y: 1, z: 1}
  m_Children:
  - {fileID: 5008780765835709313}
  - {fileID: 2693579576050645342}
  - {fileID: 1779905662690908835}
  m_Father: {fileID: 0}
  m_RootOrder: 0
  m_LocalEulerAnglesHint: {x: 0, y: 0, z: 0}
--- !u!114 &8946952690140862010
MonoBehaviour:
  m_ObjectHideFlags: 0
  m_CorrespondingSourceObject: {fileID: 0}
  m_PrefabInstance: {fileID: 0}
  m_PrefabAsset: {fileID: 0}
  m_GameObject: {fileID: 7682916214724032979}
  m_Enabled: 1
  m_EditorHideFlags: 0
  m_Script: {fileID: 11500000, guid: 3b8b98ba81c371d44b4a5da95bb229ba, type: 3}
  m_Name: 
  m_EditorClassIdentifier: 
  unitType: 0
  unitRarity: 0
  moveSpeed: 1.5
  attackDelay: 1.7
  unitWarriorUI: {fileID: 314778075464545045}
  projectile: {fileID: 0}
  firePoint: {fileID: 0}
  warriorUnitEffectsContainer: {fileID: 7758437510267518269}
  animationController: {fileID: 7603874314907963000}
  damageNumbersPrefab: {fileID: 2141552948384211686, guid: 63f5ae60c147c69418184dbc0ec71212, type: 3}
--- !u!136 &5908778609051614236
CapsuleCollider:
  m_ObjectHideFlags: 0
  m_CorrespondingSourceObject: {fileID: 0}
  m_PrefabInstance: {fileID: 0}
  m_PrefabAsset: {fileID: 0}
  m_GameObject: {fileID: 7682916214724032979}
  m_Material: {fileID: 0}
  m_IsTrigger: 0
  m_Enabled: 1
  m_Radius: 0.2
  m_Height: 0.76
  m_Direction: 1
  m_Center: {x: 0, y: 0.76, z: 0}
--- !u!1001 &3461655970825667467
PrefabInstance:
  m_ObjectHideFlags: 0
  serializedVersion: 2
  m_Modification:
    m_TransformParent: {fileID: 1234965010594345750}
    m_Modifications:
    - target: {fileID: 1543540162981690069, guid: e7015e99d11a50d4da108ee4edac11fe, type: 3}
      propertyPath: m_Pivot.x
      value: 0.5
      objectReference: {fileID: 0}
    - target: {fileID: 1543540162981690069, guid: e7015e99d11a50d4da108ee4edac11fe, type: 3}
      propertyPath: m_Pivot.y
      value: 0.5
      objectReference: {fileID: 0}
    - target: {fileID: 1543540162981690069, guid: e7015e99d11a50d4da108ee4edac11fe, type: 3}
      propertyPath: m_RootOrder
      value: 1
      objectReference: {fileID: 0}
    - target: {fileID: 1543540162981690069, guid: e7015e99d11a50d4da108ee4edac11fe, type: 3}
      propertyPath: m_AnchorMax.x
      value: 0
      objectReference: {fileID: 0}
    - target: {fileID: 1543540162981690069, guid: e7015e99d11a50d4da108ee4edac11fe, type: 3}
      propertyPath: m_AnchorMax.y
      value: 0
      objectReference: {fileID: 0}
    - target: {fileID: 1543540162981690069, guid: e7015e99d11a50d4da108ee4edac11fe, type: 3}
      propertyPath: m_AnchorMin.x
      value: 0
      objectReference: {fileID: 0}
    - target: {fileID: 1543540162981690069, guid: e7015e99d11a50d4da108ee4edac11fe, type: 3}
      propertyPath: m_AnchorMin.y
      value: 0
      objectReference: {fileID: 0}
    - target: {fileID: 1543540162981690069, guid: e7015e99d11a50d4da108ee4edac11fe, type: 3}
      propertyPath: m_SizeDelta.x
      value: 1
      objectReference: {fileID: 0}
    - target: {fileID: 1543540162981690069, guid: e7015e99d11a50d4da108ee4edac11fe, type: 3}
      propertyPath: m_SizeDelta.y
      value: 1
      objectReference: {fileID: 0}
    - target: {fileID: 1543540162981690069, guid: e7015e99d11a50d4da108ee4edac11fe, type: 3}
      propertyPath: m_LocalPosition.x
      value: 0
      objectReference: {fileID: 0}
    - target: {fileID: 1543540162981690069, guid: e7015e99d11a50d4da108ee4edac11fe, type: 3}
      propertyPath: m_LocalPosition.y
      value: 0
      objectReference: {fileID: 0}
    - target: {fileID: 1543540162981690069, guid: e7015e99d11a50d4da108ee4edac11fe, type: 3}
      propertyPath: m_LocalPosition.z
      value: -0.274
      objectReference: {fileID: 0}
    - target: {fileID: 1543540162981690069, guid: e7015e99d11a50d4da108ee4edac11fe, type: 3}
      propertyPath: m_LocalRotation.w
      value: 0.92387956
      objectReference: {fileID: 0}
    - target: {fileID: 1543540162981690069, guid: e7015e99d11a50d4da108ee4edac11fe, type: 3}
      propertyPath: m_LocalRotation.x
      value: 0.38268343
      objectReference: {fileID: 0}
    - target: {fileID: 1543540162981690069, guid: e7015e99d11a50d4da108ee4edac11fe, type: 3}
      propertyPath: m_LocalRotation.y
      value: 0
      objectReference: {fileID: 0}
    - target: {fileID: 1543540162981690069, guid: e7015e99d11a50d4da108ee4edac11fe, type: 3}
      propertyPath: m_LocalRotation.z
      value: 0
      objectReference: {fileID: 0}
    - target: {fileID: 1543540162981690069, guid: e7015e99d11a50d4da108ee4edac11fe, type: 3}
      propertyPath: m_AnchoredPosition.x
      value: 0
      objectReference: {fileID: 0}
    - target: {fileID: 1543540162981690069, guid: e7015e99d11a50d4da108ee4edac11fe, type: 3}
      propertyPath: m_AnchoredPosition.y
      value: 1.4
      objectReference: {fileID: 0}
    - target: {fileID: 1543540162981690069, guid: e7015e99d11a50d4da108ee4edac11fe, type: 3}
      propertyPath: m_LocalEulerAnglesHint.x
      value: 45
      objectReference: {fileID: 0}
    - target: {fileID: 1543540162981690069, guid: e7015e99d11a50d4da108ee4edac11fe, type: 3}
      propertyPath: m_LocalEulerAnglesHint.y
      value: 0
      objectReference: {fileID: 0}
    - target: {fileID: 1543540162981690069, guid: e7015e99d11a50d4da108ee4edac11fe, type: 3}
      propertyPath: m_LocalEulerAnglesHint.z
      value: 0
      objectReference: {fileID: 0}
    - target: {fileID: 2568035954229612155, guid: e7015e99d11a50d4da108ee4edac11fe, type: 3}
      propertyPath: m_Name
      value: UnitWarrionUI
      objectReference: {fileID: 0}
    m_RemovedComponents: []
  m_SourcePrefab: {fileID: 100100000, guid: e7015e99d11a50d4da108ee4edac11fe, type: 3}
--- !u!224 &2693579576050645342 stripped
RectTransform:
  m_CorrespondingSourceObject: {fileID: 1543540162981690069, guid: e7015e99d11a50d4da108ee4edac11fe, type: 3}
  m_PrefabInstance: {fileID: 3461655970825667467}
  m_PrefabAsset: {fileID: 0}
--- !u!114 &314778075464545045 stripped
MonoBehaviour:
  m_CorrespondingSourceObject: {fileID: 3770662144593997982, guid: e7015e99d11a50d4da108ee4edac11fe, type: 3}
  m_PrefabInstance: {fileID: 3461655970825667467}
  m_PrefabAsset: {fileID: 0}
  m_GameObject: {fileID: 0}
  m_Enabled: 1
  m_EditorHideFlags: 0
  m_Script: {fileID: 11500000, guid: adca4232b2f03f649b9b456a9298ad34, type: 3}
  m_Name: 
  m_EditorClassIdentifier: 
--- !u!1001 &5008780765835868789
PrefabInstance:
  m_ObjectHideFlags: 0
  serializedVersion: 2
  m_Modification:
    m_TransformParent: {fileID: 1234965010594345750}
    m_Modifications:
    - target: {fileID: 100420, guid: 0755a95e2e1b5f44e8226989fb76f2cf, type: 3}
      propertyPath: m_Layer
      value: 3
      objectReference: {fileID: 0}
    - target: {fileID: 100420, guid: 0755a95e2e1b5f44e8226989fb76f2cf, type: 3}
      propertyPath: m_IsActive
      value: 0
      objectReference: {fileID: 0}
    - target: {fileID: 100666, guid: 0755a95e2e1b5f44e8226989fb76f2cf, type: 3}
      propertyPath: m_Layer
      value: 3
      objectReference: {fileID: 0}
    - target: {fileID: 101922, guid: 0755a95e2e1b5f44e8226989fb76f2cf, type: 3}
      propertyPath: m_Layer
      value: 3
      objectReference: {fileID: 0}
    - target: {fileID: 102220, guid: 0755a95e2e1b5f44e8226989fb76f2cf, type: 3}
      propertyPath: m_Layer
      value: 3
      objectReference: {fileID: 0}
    - target: {fileID: 103494, guid: 0755a95e2e1b5f44e8226989fb76f2cf, type: 3}
      propertyPath: m_Layer
      value: 3
      objectReference: {fileID: 0}
    - target: {fileID: 103578, guid: 0755a95e2e1b5f44e8226989fb76f2cf, type: 3}
      propertyPath: m_Layer
      value: 3
      objectReference: {fileID: 0}
    - target: {fileID: 103578, guid: 0755a95e2e1b5f44e8226989fb76f2cf, type: 3}
      propertyPath: m_IsActive
      value: 0
      objectReference: {fileID: 0}
    - target: {fileID: 103698, guid: 0755a95e2e1b5f44e8226989fb76f2cf, type: 3}
      propertyPath: m_Layer
      value: 3
      objectReference: {fileID: 0}
    - target: {fileID: 103966, guid: 0755a95e2e1b5f44e8226989fb76f2cf, type: 3}
      propertyPath: m_Layer
      value: 3
      objectReference: {fileID: 0}
    - target: {fileID: 105014, guid: 0755a95e2e1b5f44e8226989fb76f2cf, type: 3}
      propertyPath: m_Layer
      value: 3
      objectReference: {fileID: 0}
    - target: {fileID: 105054, guid: 0755a95e2e1b5f44e8226989fb76f2cf, type: 3}
      propertyPath: m_Layer
      value: 3
      objectReference: {fileID: 0}
    - target: {fileID: 105054, guid: 0755a95e2e1b5f44e8226989fb76f2cf, type: 3}
      propertyPath: m_IsActive
      value: 0
      objectReference: {fileID: 0}
    - target: {fileID: 105204, guid: 0755a95e2e1b5f44e8226989fb76f2cf, type: 3}
      propertyPath: m_Layer
      value: 3
      objectReference: {fileID: 0}
    - target: {fileID: 105392, guid: 0755a95e2e1b5f44e8226989fb76f2cf, type: 3}
      propertyPath: m_Layer
      value: 3
      objectReference: {fileID: 0}
    - target: {fileID: 105854, guid: 0755a95e2e1b5f44e8226989fb76f2cf, type: 3}
      propertyPath: m_Layer
      value: 3
      objectReference: {fileID: 0}
    - target: {fileID: 105854, guid: 0755a95e2e1b5f44e8226989fb76f2cf, type: 3}
      propertyPath: m_IsActive
      value: 0
      objectReference: {fileID: 0}
    - target: {fileID: 106662, guid: 0755a95e2e1b5f44e8226989fb76f2cf, type: 3}
      propertyPath: m_Layer
      value: 3
      objectReference: {fileID: 0}
    - target: {fileID: 106714, guid: 0755a95e2e1b5f44e8226989fb76f2cf, type: 3}
      propertyPath: m_Layer
      value: 3
      objectReference: {fileID: 0}
    - target: {fileID: 107138, guid: 0755a95e2e1b5f44e8226989fb76f2cf, type: 3}
      propertyPath: m_Layer
      value: 3
      objectReference: {fileID: 0}
    - target: {fileID: 107272, guid: 0755a95e2e1b5f44e8226989fb76f2cf, type: 3}
      propertyPath: m_Layer
      value: 3
      objectReference: {fileID: 0}
    - target: {fileID: 107272, guid: 0755a95e2e1b5f44e8226989fb76f2cf, type: 3}
      propertyPath: m_IsActive
      value: 0
      objectReference: {fileID: 0}
    - target: {fileID: 107538, guid: 0755a95e2e1b5f44e8226989fb76f2cf, type: 3}
      propertyPath: m_Layer
      value: 3
      objectReference: {fileID: 0}
    - target: {fileID: 107938, guid: 0755a95e2e1b5f44e8226989fb76f2cf, type: 3}
      propertyPath: m_Layer
      value: 3
      objectReference: {fileID: 0}
    - target: {fileID: 107938, guid: 0755a95e2e1b5f44e8226989fb76f2cf, type: 3}
      propertyPath: m_IsActive
      value: 0
      objectReference: {fileID: 0}
    - target: {fileID: 108370, guid: 0755a95e2e1b5f44e8226989fb76f2cf, type: 3}
      propertyPath: m_Layer
      value: 3
      objectReference: {fileID: 0}
    - target: {fileID: 108490, guid: 0755a95e2e1b5f44e8226989fb76f2cf, type: 3}
      propertyPath: m_Layer
      value: 3
      objectReference: {fileID: 0}
    - target: {fileID: 108938, guid: 0755a95e2e1b5f44e8226989fb76f2cf, type: 3}
      propertyPath: m_Layer
      value: 3
      objectReference: {fileID: 0}
    - target: {fileID: 109120, guid: 0755a95e2e1b5f44e8226989fb76f2cf, type: 3}
      propertyPath: m_Layer
      value: 3
      objectReference: {fileID: 0}
    - target: {fileID: 109120, guid: 0755a95e2e1b5f44e8226989fb76f2cf, type: 3}
      propertyPath: m_IsActive
      value: 1
      objectReference: {fileID: 0}
    - target: {fileID: 110354, guid: 0755a95e2e1b5f44e8226989fb76f2cf, type: 3}
      propertyPath: m_Layer
      value: 3
      objectReference: {fileID: 0}
    - target: {fileID: 110354, guid: 0755a95e2e1b5f44e8226989fb76f2cf, type: 3}
      propertyPath: m_IsActive
      value: 0
      objectReference: {fileID: 0}
    - target: {fileID: 110728, guid: 0755a95e2e1b5f44e8226989fb76f2cf, type: 3}
      propertyPath: m_Layer
      value: 3
      objectReference: {fileID: 0}
    - target: {fileID: 111040, guid: 0755a95e2e1b5f44e8226989fb76f2cf, type: 3}
      propertyPath: m_Layer
      value: 3
      objectReference: {fileID: 0}
    - target: {fileID: 111096, guid: 0755a95e2e1b5f44e8226989fb76f2cf, type: 3}
      propertyPath: m_Layer
      value: 3
      objectReference: {fileID: 0}
    - target: {fileID: 111398, guid: 0755a95e2e1b5f44e8226989fb76f2cf, type: 3}
      propertyPath: m_Layer
      value: 3
      objectReference: {fileID: 0}
    - target: {fileID: 111906, guid: 0755a95e2e1b5f44e8226989fb76f2cf, type: 3}
      propertyPath: m_Layer
      value: 3
      objectReference: {fileID: 0}
    - target: {fileID: 112386, guid: 0755a95e2e1b5f44e8226989fb76f2cf, type: 3}
      propertyPath: m_Layer
      value: 3
      objectReference: {fileID: 0}
    - target: {fileID: 112844, guid: 0755a95e2e1b5f44e8226989fb76f2cf, type: 3}
      propertyPath: m_Layer
      value: 3
      objectReference: {fileID: 0}
    - target: {fileID: 112908, guid: 0755a95e2e1b5f44e8226989fb76f2cf, type: 3}
      propertyPath: m_Layer
      value: 3
      objectReference: {fileID: 0}
    - target: {fileID: 113614, guid: 0755a95e2e1b5f44e8226989fb76f2cf, type: 3}
      propertyPath: m_Layer
      value: 3
      objectReference: {fileID: 0}
    - target: {fileID: 114060, guid: 0755a95e2e1b5f44e8226989fb76f2cf, type: 3}
      propertyPath: m_Layer
      value: 3
      objectReference: {fileID: 0}
    - target: {fileID: 114060, guid: 0755a95e2e1b5f44e8226989fb76f2cf, type: 3}
      propertyPath: m_IsActive
      value: 0
      objectReference: {fileID: 0}
    - target: {fileID: 114566, guid: 0755a95e2e1b5f44e8226989fb76f2cf, type: 3}
      propertyPath: m_Layer
      value: 3
      objectReference: {fileID: 0}
    - target: {fileID: 114662, guid: 0755a95e2e1b5f44e8226989fb76f2cf, type: 3}
      propertyPath: m_Layer
      value: 3
      objectReference: {fileID: 0}
    - target: {fileID: 115186, guid: 0755a95e2e1b5f44e8226989fb76f2cf, type: 3}
      propertyPath: m_Layer
      value: 3
      objectReference: {fileID: 0}
    - target: {fileID: 115738, guid: 0755a95e2e1b5f44e8226989fb76f2cf, type: 3}
      propertyPath: m_Layer
      value: 3
      objectReference: {fileID: 0}
    - target: {fileID: 115856, guid: 0755a95e2e1b5f44e8226989fb76f2cf, type: 3}
      propertyPath: m_Layer
      value: 3
      objectReference: {fileID: 0}
    - target: {fileID: 115856, guid: 0755a95e2e1b5f44e8226989fb76f2cf, type: 3}
      propertyPath: m_IsActive
      value: 0
      objectReference: {fileID: 0}
    - target: {fileID: 116114, guid: 0755a95e2e1b5f44e8226989fb76f2cf, type: 3}
      propertyPath: m_Layer
      value: 3
      objectReference: {fileID: 0}
    - target: {fileID: 116730, guid: 0755a95e2e1b5f44e8226989fb76f2cf, type: 3}
      propertyPath: m_Layer
      value: 3
      objectReference: {fileID: 0}
    - target: {fileID: 116884, guid: 0755a95e2e1b5f44e8226989fb76f2cf, type: 3}
      propertyPath: m_Layer
      value: 3
      objectReference: {fileID: 0}
    - target: {fileID: 117264, guid: 0755a95e2e1b5f44e8226989fb76f2cf, type: 3}
      propertyPath: m_Layer
      value: 3
      objectReference: {fileID: 0}
    - target: {fileID: 117860, guid: 0755a95e2e1b5f44e8226989fb76f2cf, type: 3}
      propertyPath: m_Layer
      value: 3
      objectReference: {fileID: 0}
    - target: {fileID: 117880, guid: 0755a95e2e1b5f44e8226989fb76f2cf, type: 3}
      propertyPath: m_Layer
      value: 3
      objectReference: {fileID: 0}
    - target: {fileID: 118300, guid: 0755a95e2e1b5f44e8226989fb76f2cf, type: 3}
      propertyPath: m_Layer
      value: 3
      objectReference: {fileID: 0}
    - target: {fileID: 118300, guid: 0755a95e2e1b5f44e8226989fb76f2cf, type: 3}
      propertyPath: m_IsActive
      value: 0
      objectReference: {fileID: 0}
    - target: {fileID: 118314, guid: 0755a95e2e1b5f44e8226989fb76f2cf, type: 3}
      propertyPath: m_Layer
      value: 3
      objectReference: {fileID: 0}
    - target: {fileID: 119044, guid: 0755a95e2e1b5f44e8226989fb76f2cf, type: 3}
      propertyPath: m_Layer
      value: 3
      objectReference: {fileID: 0}
    - target: {fileID: 119044, guid: 0755a95e2e1b5f44e8226989fb76f2cf, type: 3}
      propertyPath: m_IsActive
      value: 0
      objectReference: {fileID: 0}
    - target: {fileID: 119168, guid: 0755a95e2e1b5f44e8226989fb76f2cf, type: 3}
      propertyPath: m_Layer
      value: 3
      objectReference: {fileID: 0}
    - target: {fileID: 119650, guid: 0755a95e2e1b5f44e8226989fb76f2cf, type: 3}
      propertyPath: m_Layer
      value: 3
      objectReference: {fileID: 0}
    - target: {fileID: 119834, guid: 0755a95e2e1b5f44e8226989fb76f2cf, type: 3}
      propertyPath: m_Layer
      value: 3
      objectReference: {fileID: 0}
    - target: {fileID: 120216, guid: 0755a95e2e1b5f44e8226989fb76f2cf, type: 3}
      propertyPath: m_Layer
      value: 3
      objectReference: {fileID: 0}
    - target: {fileID: 121778, guid: 0755a95e2e1b5f44e8226989fb76f2cf, type: 3}
      propertyPath: m_Layer
      value: 3
      objectReference: {fileID: 0}
    - target: {fileID: 121778, guid: 0755a95e2e1b5f44e8226989fb76f2cf, type: 3}
      propertyPath: m_IsActive
      value: 0
      objectReference: {fileID: 0}
    - target: {fileID: 122138, guid: 0755a95e2e1b5f44e8226989fb76f2cf, type: 3}
      propertyPath: m_Layer
      value: 3
      objectReference: {fileID: 0}
    - target: {fileID: 122174, guid: 0755a95e2e1b5f44e8226989fb76f2cf, type: 3}
      propertyPath: m_Layer
      value: 3
      objectReference: {fileID: 0}
    - target: {fileID: 122928, guid: 0755a95e2e1b5f44e8226989fb76f2cf, type: 3}
      propertyPath: m_Layer
      value: 3
      objectReference: {fileID: 0}
    - target: {fileID: 123088, guid: 0755a95e2e1b5f44e8226989fb76f2cf, type: 3}
      propertyPath: m_Name
      value: TT_Spearman
      objectReference: {fileID: 0}
    - target: {fileID: 123088, guid: 0755a95e2e1b5f44e8226989fb76f2cf, type: 3}
      propertyPath: m_Layer
      value: 3
      objectReference: {fileID: 0}
    - target: {fileID: 123120, guid: 0755a95e2e1b5f44e8226989fb76f2cf, type: 3}
      propertyPath: m_Layer
      value: 3
      objectReference: {fileID: 0}
    - target: {fileID: 123120, guid: 0755a95e2e1b5f44e8226989fb76f2cf, type: 3}
      propertyPath: m_IsActive
      value: 1
      objectReference: {fileID: 0}
    - target: {fileID: 123234, guid: 0755a95e2e1b5f44e8226989fb76f2cf, type: 3}
      propertyPath: m_Layer
      value: 3
      objectReference: {fileID: 0}
    - target: {fileID: 124052, guid: 0755a95e2e1b5f44e8226989fb76f2cf, type: 3}
      propertyPath: m_Layer
      value: 3
      objectReference: {fileID: 0}
    - target: {fileID: 124944, guid: 0755a95e2e1b5f44e8226989fb76f2cf, type: 3}
      propertyPath: m_Layer
      value: 3
      objectReference: {fileID: 0}
    - target: {fileID: 125112, guid: 0755a95e2e1b5f44e8226989fb76f2cf, type: 3}
      propertyPath: m_Layer
      value: 3
      objectReference: {fileID: 0}
    - target: {fileID: 125112, guid: 0755a95e2e1b5f44e8226989fb76f2cf, type: 3}
      propertyPath: m_IsActive
      value: 0
      objectReference: {fileID: 0}
    - target: {fileID: 125534, guid: 0755a95e2e1b5f44e8226989fb76f2cf, type: 3}
      propertyPath: m_Layer
      value: 3
      objectReference: {fileID: 0}
    - target: {fileID: 125758, guid: 0755a95e2e1b5f44e8226989fb76f2cf, type: 3}
      propertyPath: m_Layer
      value: 3
      objectReference: {fileID: 0}
    - target: {fileID: 125960, guid: 0755a95e2e1b5f44e8226989fb76f2cf, type: 3}
      propertyPath: m_Layer
      value: 3
      objectReference: {fileID: 0}
    - target: {fileID: 125960, guid: 0755a95e2e1b5f44e8226989fb76f2cf, type: 3}
      propertyPath: m_IsActive
      value: 0
      objectReference: {fileID: 0}
    - target: {fileID: 126384, guid: 0755a95e2e1b5f44e8226989fb76f2cf, type: 3}
      propertyPath: m_Layer
      value: 3
      objectReference: {fileID: 0}
    - target: {fileID: 127014, guid: 0755a95e2e1b5f44e8226989fb76f2cf, type: 3}
      propertyPath: m_Layer
      value: 3
      objectReference: {fileID: 0}
    - target: {fileID: 127014, guid: 0755a95e2e1b5f44e8226989fb76f2cf, type: 3}
      propertyPath: m_IsActive
      value: 1
      objectReference: {fileID: 0}
    - target: {fileID: 129632, guid: 0755a95e2e1b5f44e8226989fb76f2cf, type: 3}
      propertyPath: m_Layer
      value: 3
      objectReference: {fileID: 0}
    - target: {fileID: 129956, guid: 0755a95e2e1b5f44e8226989fb76f2cf, type: 3}
      propertyPath: m_Layer
      value: 3
      objectReference: {fileID: 0}
    - target: {fileID: 129956, guid: 0755a95e2e1b5f44e8226989fb76f2cf, type: 3}
      propertyPath: m_IsActive
      value: 0
      objectReference: {fileID: 0}
    - target: {fileID: 130228, guid: 0755a95e2e1b5f44e8226989fb76f2cf, type: 3}
      propertyPath: m_Layer
      value: 3
      objectReference: {fileID: 0}
    - target: {fileID: 130868, guid: 0755a95e2e1b5f44e8226989fb76f2cf, type: 3}
      propertyPath: m_Layer
      value: 3
      objectReference: {fileID: 0}
    - target: {fileID: 130916, guid: 0755a95e2e1b5f44e8226989fb76f2cf, type: 3}
      propertyPath: m_Layer
      value: 3
      objectReference: {fileID: 0}
    - target: {fileID: 131052, guid: 0755a95e2e1b5f44e8226989fb76f2cf, type: 3}
      propertyPath: m_Layer
      value: 3
      objectReference: {fileID: 0}
    - target: {fileID: 131328, guid: 0755a95e2e1b5f44e8226989fb76f2cf, type: 3}
      propertyPath: m_Layer
      value: 3
      objectReference: {fileID: 0}
    - target: {fileID: 132214, guid: 0755a95e2e1b5f44e8226989fb76f2cf, type: 3}
      propertyPath: m_Layer
      value: 3
      objectReference: {fileID: 0}
    - target: {fileID: 132214, guid: 0755a95e2e1b5f44e8226989fb76f2cf, type: 3}
      propertyPath: m_IsActive
      value: 0
      objectReference: {fileID: 0}
    - target: {fileID: 132646, guid: 0755a95e2e1b5f44e8226989fb76f2cf, type: 3}
      propertyPath: m_Layer
      value: 3
      objectReference: {fileID: 0}
    - target: {fileID: 132682, guid: 0755a95e2e1b5f44e8226989fb76f2cf, type: 3}
      propertyPath: m_Layer
      value: 3
      objectReference: {fileID: 0}
    - target: {fileID: 132808, guid: 0755a95e2e1b5f44e8226989fb76f2cf, type: 3}
      propertyPath: m_Layer
      value: 3
      objectReference: {fileID: 0}
    - target: {fileID: 133442, guid: 0755a95e2e1b5f44e8226989fb76f2cf, type: 3}
      propertyPath: m_Layer
      value: 3
      objectReference: {fileID: 0}
    - target: {fileID: 135124, guid: 0755a95e2e1b5f44e8226989fb76f2cf, type: 3}
      propertyPath: m_Layer
      value: 3
      objectReference: {fileID: 0}
    - target: {fileID: 135316, guid: 0755a95e2e1b5f44e8226989fb76f2cf, type: 3}
      propertyPath: m_Layer
      value: 3
      objectReference: {fileID: 0}
    - target: {fileID: 135368, guid: 0755a95e2e1b5f44e8226989fb76f2cf, type: 3}
      propertyPath: m_Layer
      value: 3
      objectReference: {fileID: 0}
    - target: {fileID: 135802, guid: 0755a95e2e1b5f44e8226989fb76f2cf, type: 3}
      propertyPath: m_Layer
      value: 3
      objectReference: {fileID: 0}
    - target: {fileID: 135802, guid: 0755a95e2e1b5f44e8226989fb76f2cf, type: 3}
      propertyPath: m_IsActive
      value: 0
      objectReference: {fileID: 0}
    - target: {fileID: 135828, guid: 0755a95e2e1b5f44e8226989fb76f2cf, type: 3}
      propertyPath: m_Layer
      value: 3
      objectReference: {fileID: 0}
    - target: {fileID: 136076, guid: 0755a95e2e1b5f44e8226989fb76f2cf, type: 3}
      propertyPath: m_Layer
      value: 3
      objectReference: {fileID: 0}
    - target: {fileID: 137020, guid: 0755a95e2e1b5f44e8226989fb76f2cf, type: 3}
      propertyPath: m_Layer
      value: 3
      objectReference: {fileID: 0}
    - target: {fileID: 137498, guid: 0755a95e2e1b5f44e8226989fb76f2cf, type: 3}
      propertyPath: m_Layer
      value: 3
      objectReference: {fileID: 0}
    - target: {fileID: 137498, guid: 0755a95e2e1b5f44e8226989fb76f2cf, type: 3}
      propertyPath: m_IsActive
      value: 0
      objectReference: {fileID: 0}
    - target: {fileID: 137974, guid: 0755a95e2e1b5f44e8226989fb76f2cf, type: 3}
      propertyPath: m_Layer
      value: 3
      objectReference: {fileID: 0}
    - target: {fileID: 138798, guid: 0755a95e2e1b5f44e8226989fb76f2cf, type: 3}
      propertyPath: m_Layer
      value: 3
      objectReference: {fileID: 0}
    - target: {fileID: 139622, guid: 0755a95e2e1b5f44e8226989fb76f2cf, type: 3}
      propertyPath: m_Layer
      value: 3
      objectReference: {fileID: 0}
    - target: {fileID: 140466, guid: 0755a95e2e1b5f44e8226989fb76f2cf, type: 3}
      propertyPath: m_Layer
      value: 3
      objectReference: {fileID: 0}
    - target: {fileID: 140736, guid: 0755a95e2e1b5f44e8226989fb76f2cf, type: 3}
      propertyPath: m_Layer
      value: 3
      objectReference: {fileID: 0}
    - target: {fileID: 140736, guid: 0755a95e2e1b5f44e8226989fb76f2cf, type: 3}
      propertyPath: m_IsActive
      value: 0
      objectReference: {fileID: 0}
    - target: {fileID: 141048, guid: 0755a95e2e1b5f44e8226989fb76f2cf, type: 3}
      propertyPath: m_Layer
      value: 3
      objectReference: {fileID: 0}
    - target: {fileID: 141062, guid: 0755a95e2e1b5f44e8226989fb76f2cf, type: 3}
      propertyPath: m_Layer
      value: 3
      objectReference: {fileID: 0}
    - target: {fileID: 141062, guid: 0755a95e2e1b5f44e8226989fb76f2cf, type: 3}
      propertyPath: m_IsActive
      value: 0
      objectReference: {fileID: 0}
    - target: {fileID: 141520, guid: 0755a95e2e1b5f44e8226989fb76f2cf, type: 3}
      propertyPath: m_Layer
      value: 3
      objectReference: {fileID: 0}
    - target: {fileID: 141658, guid: 0755a95e2e1b5f44e8226989fb76f2cf, type: 3}
      propertyPath: m_Layer
      value: 3
      objectReference: {fileID: 0}
    - target: {fileID: 141724, guid: 0755a95e2e1b5f44e8226989fb76f2cf, type: 3}
      propertyPath: m_Layer
      value: 3
      objectReference: {fileID: 0}
    - target: {fileID: 142214, guid: 0755a95e2e1b5f44e8226989fb76f2cf, type: 3}
      propertyPath: m_Layer
      value: 3
      objectReference: {fileID: 0}
    - target: {fileID: 142688, guid: 0755a95e2e1b5f44e8226989fb76f2cf, type: 3}
      propertyPath: m_Layer
      value: 3
      objectReference: {fileID: 0}
    - target: {fileID: 142734, guid: 0755a95e2e1b5f44e8226989fb76f2cf, type: 3}
      propertyPath: m_Layer
      value: 3
      objectReference: {fileID: 0}
    - target: {fileID: 142958, guid: 0755a95e2e1b5f44e8226989fb76f2cf, type: 3}
      propertyPath: m_Layer
      value: 3
      objectReference: {fileID: 0}
    - target: {fileID: 143084, guid: 0755a95e2e1b5f44e8226989fb76f2cf, type: 3}
      propertyPath: m_Layer
      value: 3
      objectReference: {fileID: 0}
    - target: {fileID: 143084, guid: 0755a95e2e1b5f44e8226989fb76f2cf, type: 3}
      propertyPath: m_IsActive
      value: 0
      objectReference: {fileID: 0}
    - target: {fileID: 143288, guid: 0755a95e2e1b5f44e8226989fb76f2cf, type: 3}
      propertyPath: m_Layer
      value: 3
      objectReference: {fileID: 0}
    - target: {fileID: 143304, guid: 0755a95e2e1b5f44e8226989fb76f2cf, type: 3}
      propertyPath: m_Layer
      value: 3
      objectReference: {fileID: 0}
    - target: {fileID: 143330, guid: 0755a95e2e1b5f44e8226989fb76f2cf, type: 3}
      propertyPath: m_Layer
      value: 3
      objectReference: {fileID: 0}
    - target: {fileID: 143692, guid: 0755a95e2e1b5f44e8226989fb76f2cf, type: 3}
      propertyPath: m_Layer
      value: 3
      objectReference: {fileID: 0}
    - target: {fileID: 144428, guid: 0755a95e2e1b5f44e8226989fb76f2cf, type: 3}
      propertyPath: m_Layer
      value: 3
      objectReference: {fileID: 0}
    - target: {fileID: 144816, guid: 0755a95e2e1b5f44e8226989fb76f2cf, type: 3}
      propertyPath: m_Layer
      value: 3
      objectReference: {fileID: 0}
    - target: {fileID: 144816, guid: 0755a95e2e1b5f44e8226989fb76f2cf, type: 3}
      propertyPath: m_IsActive
      value: 0
      objectReference: {fileID: 0}
    - target: {fileID: 145104, guid: 0755a95e2e1b5f44e8226989fb76f2cf, type: 3}
      propertyPath: m_Layer
      value: 3
      objectReference: {fileID: 0}
    - target: {fileID: 145104, guid: 0755a95e2e1b5f44e8226989fb76f2cf, type: 3}
      propertyPath: m_IsActive
      value: 0
      objectReference: {fileID: 0}
    - target: {fileID: 145514, guid: 0755a95e2e1b5f44e8226989fb76f2cf, type: 3}
      propertyPath: m_Layer
      value: 3
      objectReference: {fileID: 0}
    - target: {fileID: 145790, guid: 0755a95e2e1b5f44e8226989fb76f2cf, type: 3}
      propertyPath: m_Layer
      value: 3
      objectReference: {fileID: 0}
    - target: {fileID: 146106, guid: 0755a95e2e1b5f44e8226989fb76f2cf, type: 3}
      propertyPath: m_Layer
      value: 3
      objectReference: {fileID: 0}
    - target: {fileID: 146126, guid: 0755a95e2e1b5f44e8226989fb76f2cf, type: 3}
      propertyPath: m_Layer
      value: 3
      objectReference: {fileID: 0}
    - target: {fileID: 146420, guid: 0755a95e2e1b5f44e8226989fb76f2cf, type: 3}
      propertyPath: m_Layer
      value: 3
      objectReference: {fileID: 0}
    - target: {fileID: 147524, guid: 0755a95e2e1b5f44e8226989fb76f2cf, type: 3}
      propertyPath: m_Layer
      value: 3
      objectReference: {fileID: 0}
    - target: {fileID: 147524, guid: 0755a95e2e1b5f44e8226989fb76f2cf, type: 3}
      propertyPath: m_IsActive
      value: 0
      objectReference: {fileID: 0}
    - target: {fileID: 148364, guid: 0755a95e2e1b5f44e8226989fb76f2cf, type: 3}
      propertyPath: m_Layer
      value: 3
      objectReference: {fileID: 0}
    - target: {fileID: 148424, guid: 0755a95e2e1b5f44e8226989fb76f2cf, type: 3}
      propertyPath: m_Layer
      value: 3
      objectReference: {fileID: 0}
    - target: {fileID: 148424, guid: 0755a95e2e1b5f44e8226989fb76f2cf, type: 3}
      propertyPath: m_IsActive
      value: 0
      objectReference: {fileID: 0}
    - target: {fileID: 148462, guid: 0755a95e2e1b5f44e8226989fb76f2cf, type: 3}
      propertyPath: m_Layer
      value: 3
      objectReference: {fileID: 0}
    - target: {fileID: 148462, guid: 0755a95e2e1b5f44e8226989fb76f2cf, type: 3}
      propertyPath: m_IsActive
      value: 0
      objectReference: {fileID: 0}
    - target: {fileID: 148732, guid: 0755a95e2e1b5f44e8226989fb76f2cf, type: 3}
      propertyPath: m_Layer
      value: 3
      objectReference: {fileID: 0}
    - target: {fileID: 151104, guid: 0755a95e2e1b5f44e8226989fb76f2cf, type: 3}
      propertyPath: m_Layer
      value: 3
      objectReference: {fileID: 0}
    - target: {fileID: 151722, guid: 0755a95e2e1b5f44e8226989fb76f2cf, type: 3}
      propertyPath: m_Layer
      value: 3
      objectReference: {fileID: 0}
    - target: {fileID: 151790, guid: 0755a95e2e1b5f44e8226989fb76f2cf, type: 3}
      propertyPath: m_Layer
      value: 3
      objectReference: {fileID: 0}
    - target: {fileID: 152610, guid: 0755a95e2e1b5f44e8226989fb76f2cf, type: 3}
      propertyPath: m_Layer
      value: 3
      objectReference: {fileID: 0}
    - target: {fileID: 152828, guid: 0755a95e2e1b5f44e8226989fb76f2cf, type: 3}
      propertyPath: m_Layer
      value: 3
      objectReference: {fileID: 0}
    - target: {fileID: 153542, guid: 0755a95e2e1b5f44e8226989fb76f2cf, type: 3}
      propertyPath: m_Layer
      value: 3
      objectReference: {fileID: 0}
    - target: {fileID: 153992, guid: 0755a95e2e1b5f44e8226989fb76f2cf, type: 3}
      propertyPath: m_Layer
      value: 3
      objectReference: {fileID: 0}
    - target: {fileID: 153992, guid: 0755a95e2e1b5f44e8226989fb76f2cf, type: 3}
      propertyPath: m_IsActive
      value: 0
      objectReference: {fileID: 0}
    - target: {fileID: 154080, guid: 0755a95e2e1b5f44e8226989fb76f2cf, type: 3}
      propertyPath: m_Layer
      value: 3
      objectReference: {fileID: 0}
    - target: {fileID: 154174, guid: 0755a95e2e1b5f44e8226989fb76f2cf, type: 3}
      propertyPath: m_Layer
      value: 3
      objectReference: {fileID: 0}
    - target: {fileID: 154174, guid: 0755a95e2e1b5f44e8226989fb76f2cf, type: 3}
      propertyPath: m_IsActive
      value: 0
      objectReference: {fileID: 0}
    - target: {fileID: 154270, guid: 0755a95e2e1b5f44e8226989fb76f2cf, type: 3}
      propertyPath: m_Layer
      value: 3
      objectReference: {fileID: 0}
    - target: {fileID: 154874, guid: 0755a95e2e1b5f44e8226989fb76f2cf, type: 3}
      propertyPath: m_Layer
      value: 3
      objectReference: {fileID: 0}
    - target: {fileID: 154874, guid: 0755a95e2e1b5f44e8226989fb76f2cf, type: 3}
      propertyPath: m_IsActive
      value: 0
      objectReference: {fileID: 0}
    - target: {fileID: 155110, guid: 0755a95e2e1b5f44e8226989fb76f2cf, type: 3}
      propertyPath: m_Layer
      value: 3
      objectReference: {fileID: 0}
    - target: {fileID: 155110, guid: 0755a95e2e1b5f44e8226989fb76f2cf, type: 3}
      propertyPath: m_IsActive
      value: 0
      objectReference: {fileID: 0}
    - target: {fileID: 155992, guid: 0755a95e2e1b5f44e8226989fb76f2cf, type: 3}
      propertyPath: m_Layer
      value: 3
      objectReference: {fileID: 0}
    - target: {fileID: 158332, guid: 0755a95e2e1b5f44e8226989fb76f2cf, type: 3}
      propertyPath: m_Layer
      value: 3
      objectReference: {fileID: 0}
    - target: {fileID: 158478, guid: 0755a95e2e1b5f44e8226989fb76f2cf, type: 3}
      propertyPath: m_Layer
      value: 3
      objectReference: {fileID: 0}
    - target: {fileID: 159612, guid: 0755a95e2e1b5f44e8226989fb76f2cf, type: 3}
      propertyPath: m_Layer
      value: 3
      objectReference: {fileID: 0}
    - target: {fileID: 159612, guid: 0755a95e2e1b5f44e8226989fb76f2cf, type: 3}
      propertyPath: m_IsActive
      value: 0
      objectReference: {fileID: 0}
    - target: {fileID: 160010, guid: 0755a95e2e1b5f44e8226989fb76f2cf, type: 3}
      propertyPath: m_Layer
      value: 3
      objectReference: {fileID: 0}
    - target: {fileID: 160698, guid: 0755a95e2e1b5f44e8226989fb76f2cf, type: 3}
      propertyPath: m_Layer
      value: 3
      objectReference: {fileID: 0}
    - target: {fileID: 160698, guid: 0755a95e2e1b5f44e8226989fb76f2cf, type: 3}
      propertyPath: m_IsActive
      value: 0
      objectReference: {fileID: 0}
    - target: {fileID: 160776, guid: 0755a95e2e1b5f44e8226989fb76f2cf, type: 3}
      propertyPath: m_Layer
      value: 3
      objectReference: {fileID: 0}
    - target: {fileID: 160916, guid: 0755a95e2e1b5f44e8226989fb76f2cf, type: 3}
      propertyPath: m_Layer
      value: 3
      objectReference: {fileID: 0}
    - target: {fileID: 161612, guid: 0755a95e2e1b5f44e8226989fb76f2cf, type: 3}
      propertyPath: m_Layer
      value: 3
      objectReference: {fileID: 0}
    - target: {fileID: 162164, guid: 0755a95e2e1b5f44e8226989fb76f2cf, type: 3}
      propertyPath: m_Layer
      value: 3
      objectReference: {fileID: 0}
    - target: {fileID: 162164, guid: 0755a95e2e1b5f44e8226989fb76f2cf, type: 3}
      propertyPath: m_IsActive
      value: 0
      objectReference: {fileID: 0}
    - target: {fileID: 162296, guid: 0755a95e2e1b5f44e8226989fb76f2cf, type: 3}
      propertyPath: m_Layer
      value: 3
      objectReference: {fileID: 0}
    - target: {fileID: 162296, guid: 0755a95e2e1b5f44e8226989fb76f2cf, type: 3}
      propertyPath: m_IsActive
      value: 0
      objectReference: {fileID: 0}
    - target: {fileID: 162334, guid: 0755a95e2e1b5f44e8226989fb76f2cf, type: 3}
      propertyPath: m_Layer
      value: 3
      objectReference: {fileID: 0}
    - target: {fileID: 162334, guid: 0755a95e2e1b5f44e8226989fb76f2cf, type: 3}
      propertyPath: m_IsActive
      value: 0
      objectReference: {fileID: 0}
    - target: {fileID: 162694, guid: 0755a95e2e1b5f44e8226989fb76f2cf, type: 3}
      propertyPath: m_Layer
      value: 3
      objectReference: {fileID: 0}
    - target: {fileID: 162818, guid: 0755a95e2e1b5f44e8226989fb76f2cf, type: 3}
      propertyPath: m_Layer
      value: 3
      objectReference: {fileID: 0}
    - target: {fileID: 164178, guid: 0755a95e2e1b5f44e8226989fb76f2cf, type: 3}
      propertyPath: m_Layer
      value: 3
      objectReference: {fileID: 0}
    - target: {fileID: 164178, guid: 0755a95e2e1b5f44e8226989fb76f2cf, type: 3}
      propertyPath: m_IsActive
      value: 0
      objectReference: {fileID: 0}
    - target: {fileID: 164308, guid: 0755a95e2e1b5f44e8226989fb76f2cf, type: 3}
      propertyPath: m_Layer
      value: 3
      objectReference: {fileID: 0}
    - target: {fileID: 165112, guid: 0755a95e2e1b5f44e8226989fb76f2cf, type: 3}
      propertyPath: m_Layer
      value: 3
      objectReference: {fileID: 0}
    - target: {fileID: 166464, guid: 0755a95e2e1b5f44e8226989fb76f2cf, type: 3}
      propertyPath: m_Layer
      value: 3
      objectReference: {fileID: 0}
    - target: {fileID: 166464, guid: 0755a95e2e1b5f44e8226989fb76f2cf, type: 3}
      propertyPath: m_IsActive
      value: 0
      objectReference: {fileID: 0}
    - target: {fileID: 166858, guid: 0755a95e2e1b5f44e8226989fb76f2cf, type: 3}
      propertyPath: m_Layer
      value: 3
      objectReference: {fileID: 0}
    - target: {fileID: 167366, guid: 0755a95e2e1b5f44e8226989fb76f2cf, type: 3}
      propertyPath: m_Layer
      value: 3
      objectReference: {fileID: 0}
    - target: {fileID: 167366, guid: 0755a95e2e1b5f44e8226989fb76f2cf, type: 3}
      propertyPath: m_IsActive
      value: 0
      objectReference: {fileID: 0}
    - target: {fileID: 167496, guid: 0755a95e2e1b5f44e8226989fb76f2cf, type: 3}
      propertyPath: m_Layer
      value: 3
      objectReference: {fileID: 0}
    - target: {fileID: 167738, guid: 0755a95e2e1b5f44e8226989fb76f2cf, type: 3}
      propertyPath: m_Layer
      value: 3
      objectReference: {fileID: 0}
    - target: {fileID: 167782, guid: 0755a95e2e1b5f44e8226989fb76f2cf, type: 3}
      propertyPath: m_Layer
      value: 3
      objectReference: {fileID: 0}
    - target: {fileID: 167782, guid: 0755a95e2e1b5f44e8226989fb76f2cf, type: 3}
      propertyPath: m_IsActive
      value: 0
      objectReference: {fileID: 0}
    - target: {fileID: 169280, guid: 0755a95e2e1b5f44e8226989fb76f2cf, type: 3}
      propertyPath: m_Layer
      value: 3
      objectReference: {fileID: 0}
    - target: {fileID: 170654, guid: 0755a95e2e1b5f44e8226989fb76f2cf, type: 3}
      propertyPath: m_Layer
      value: 3
      objectReference: {fileID: 0}
    - target: {fileID: 170790, guid: 0755a95e2e1b5f44e8226989fb76f2cf, type: 3}
      propertyPath: m_Layer
      value: 3
      objectReference: {fileID: 0}
    - target: {fileID: 170942, guid: 0755a95e2e1b5f44e8226989fb76f2cf, type: 3}
      propertyPath: m_Layer
      value: 3
      objectReference: {fileID: 0}
    - target: {fileID: 171284, guid: 0755a95e2e1b5f44e8226989fb76f2cf, type: 3}
      propertyPath: m_Layer
      value: 3
      objectReference: {fileID: 0}
    - target: {fileID: 172116, guid: 0755a95e2e1b5f44e8226989fb76f2cf, type: 3}
      propertyPath: m_Layer
      value: 3
      objectReference: {fileID: 0}
    - target: {fileID: 172978, guid: 0755a95e2e1b5f44e8226989fb76f2cf, type: 3}
      propertyPath: m_Layer
      value: 3
      objectReference: {fileID: 0}
    - target: {fileID: 173246, guid: 0755a95e2e1b5f44e8226989fb76f2cf, type: 3}
      propertyPath: m_Layer
      value: 3
      objectReference: {fileID: 0}
    - target: {fileID: 173636, guid: 0755a95e2e1b5f44e8226989fb76f2cf, type: 3}
      propertyPath: m_Layer
      value: 3
      objectReference: {fileID: 0}
    - target: {fileID: 173646, guid: 0755a95e2e1b5f44e8226989fb76f2cf, type: 3}
      propertyPath: m_Layer
      value: 3
      objectReference: {fileID: 0}
    - target: {fileID: 175118, guid: 0755a95e2e1b5f44e8226989fb76f2cf, type: 3}
      propertyPath: m_Layer
      value: 3
      objectReference: {fileID: 0}
    - target: {fileID: 175606, guid: 0755a95e2e1b5f44e8226989fb76f2cf, type: 3}
      propertyPath: m_Layer
      value: 3
      objectReference: {fileID: 0}
    - target: {fileID: 175606, guid: 0755a95e2e1b5f44e8226989fb76f2cf, type: 3}
      propertyPath: m_IsActive
      value: 0
      objectReference: {fileID: 0}
    - target: {fileID: 175708, guid: 0755a95e2e1b5f44e8226989fb76f2cf, type: 3}
      propertyPath: m_Layer
      value: 3
      objectReference: {fileID: 0}
    - target: {fileID: 176322, guid: 0755a95e2e1b5f44e8226989fb76f2cf, type: 3}
      propertyPath: m_Layer
      value: 3
      objectReference: {fileID: 0}
    - target: {fileID: 176470, guid: 0755a95e2e1b5f44e8226989fb76f2cf, type: 3}
      propertyPath: m_Layer
      value: 3
      objectReference: {fileID: 0}
    - target: {fileID: 176942, guid: 0755a95e2e1b5f44e8226989fb76f2cf, type: 3}
      propertyPath: m_Layer
      value: 3
      objectReference: {fileID: 0}
    - target: {fileID: 176942, guid: 0755a95e2e1b5f44e8226989fb76f2cf, type: 3}
      propertyPath: m_IsActive
      value: 0
      objectReference: {fileID: 0}
    - target: {fileID: 177072, guid: 0755a95e2e1b5f44e8226989fb76f2cf, type: 3}
      propertyPath: m_Layer
      value: 3
      objectReference: {fileID: 0}
    - target: {fileID: 177508, guid: 0755a95e2e1b5f44e8226989fb76f2cf, type: 3}
      propertyPath: m_Layer
      value: 3
      objectReference: {fileID: 0}
    - target: {fileID: 177508, guid: 0755a95e2e1b5f44e8226989fb76f2cf, type: 3}
      propertyPath: m_IsActive
      value: 0
      objectReference: {fileID: 0}
    - target: {fileID: 179294, guid: 0755a95e2e1b5f44e8226989fb76f2cf, type: 3}
      propertyPath: m_Layer
      value: 3
      objectReference: {fileID: 0}
    - target: {fileID: 181780, guid: 0755a95e2e1b5f44e8226989fb76f2cf, type: 3}
      propertyPath: m_Layer
      value: 3
      objectReference: {fileID: 0}
    - target: {fileID: 181780, guid: 0755a95e2e1b5f44e8226989fb76f2cf, type: 3}
      propertyPath: m_IsActive
      value: 0
      objectReference: {fileID: 0}
    - target: {fileID: 182184, guid: 0755a95e2e1b5f44e8226989fb76f2cf, type: 3}
      propertyPath: m_Layer
      value: 3
      objectReference: {fileID: 0}
    - target: {fileID: 182496, guid: 0755a95e2e1b5f44e8226989fb76f2cf, type: 3}
      propertyPath: m_Layer
      value: 3
      objectReference: {fileID: 0}
    - target: {fileID: 183366, guid: 0755a95e2e1b5f44e8226989fb76f2cf, type: 3}
      propertyPath: m_Layer
      value: 3
      objectReference: {fileID: 0}
    - target: {fileID: 183662, guid: 0755a95e2e1b5f44e8226989fb76f2cf, type: 3}
      propertyPath: m_Layer
      value: 3
      objectReference: {fileID: 0}
    - target: {fileID: 184252, guid: 0755a95e2e1b5f44e8226989fb76f2cf, type: 3}
      propertyPath: m_Layer
      value: 3
      objectReference: {fileID: 0}
    - target: {fileID: 184306, guid: 0755a95e2e1b5f44e8226989fb76f2cf, type: 3}
      propertyPath: m_Layer
      value: 3
      objectReference: {fileID: 0}
    - target: {fileID: 185642, guid: 0755a95e2e1b5f44e8226989fb76f2cf, type: 3}
      propertyPath: m_Layer
      value: 3
      objectReference: {fileID: 0}
    - target: {fileID: 185642, guid: 0755a95e2e1b5f44e8226989fb76f2cf, type: 3}
      propertyPath: m_IsActive
      value: 0
      objectReference: {fileID: 0}
    - target: {fileID: 185788, guid: 0755a95e2e1b5f44e8226989fb76f2cf, type: 3}
      propertyPath: m_Layer
      value: 3
      objectReference: {fileID: 0}
    - target: {fileID: 185904, guid: 0755a95e2e1b5f44e8226989fb76f2cf, type: 3}
      propertyPath: m_Layer
      value: 3
      objectReference: {fileID: 0}
    - target: {fileID: 185926, guid: 0755a95e2e1b5f44e8226989fb76f2cf, type: 3}
      propertyPath: m_Layer
      value: 3
      objectReference: {fileID: 0}
    - target: {fileID: 186230, guid: 0755a95e2e1b5f44e8226989fb76f2cf, type: 3}
      propertyPath: m_Layer
      value: 3
      objectReference: {fileID: 0}
    - target: {fileID: 187742, guid: 0755a95e2e1b5f44e8226989fb76f2cf, type: 3}
      propertyPath: m_Layer
      value: 3
      objectReference: {fileID: 0}
    - target: {fileID: 187742, guid: 0755a95e2e1b5f44e8226989fb76f2cf, type: 3}
      propertyPath: m_IsActive
      value: 0
      objectReference: {fileID: 0}
    - target: {fileID: 187890, guid: 0755a95e2e1b5f44e8226989fb76f2cf, type: 3}
      propertyPath: m_Layer
      value: 3
      objectReference: {fileID: 0}
    - target: {fileID: 188626, guid: 0755a95e2e1b5f44e8226989fb76f2cf, type: 3}
      propertyPath: m_Layer
      value: 3
      objectReference: {fileID: 0}
    - target: {fileID: 189172, guid: 0755a95e2e1b5f44e8226989fb76f2cf, type: 3}
      propertyPath: m_Layer
      value: 3
      objectReference: {fileID: 0}
    - target: {fileID: 189172, guid: 0755a95e2e1b5f44e8226989fb76f2cf, type: 3}
      propertyPath: m_IsActive
      value: 0
      objectReference: {fileID: 0}
    - target: {fileID: 189266, guid: 0755a95e2e1b5f44e8226989fb76f2cf, type: 3}
      propertyPath: m_Layer
      value: 3
      objectReference: {fileID: 0}
    - target: {fileID: 189266, guid: 0755a95e2e1b5f44e8226989fb76f2cf, type: 3}
      propertyPath: m_IsActive
      value: 0
      objectReference: {fileID: 0}
    - target: {fileID: 189422, guid: 0755a95e2e1b5f44e8226989fb76f2cf, type: 3}
      propertyPath: m_Layer
      value: 3
      objectReference: {fileID: 0}
    - target: {fileID: 189422, guid: 0755a95e2e1b5f44e8226989fb76f2cf, type: 3}
      propertyPath: m_IsActive
      value: 0
      objectReference: {fileID: 0}
    - target: {fileID: 189428, guid: 0755a95e2e1b5f44e8226989fb76f2cf, type: 3}
      propertyPath: m_Layer
      value: 3
      objectReference: {fileID: 0}
    - target: {fileID: 189612, guid: 0755a95e2e1b5f44e8226989fb76f2cf, type: 3}
      propertyPath: m_Layer
      value: 3
      objectReference: {fileID: 0}
    - target: {fileID: 190490, guid: 0755a95e2e1b5f44e8226989fb76f2cf, type: 3}
      propertyPath: m_Layer
      value: 3
      objectReference: {fileID: 0}
    - target: {fileID: 190624, guid: 0755a95e2e1b5f44e8226989fb76f2cf, type: 3}
      propertyPath: m_Layer
      value: 3
      objectReference: {fileID: 0}
    - target: {fileID: 190866, guid: 0755a95e2e1b5f44e8226989fb76f2cf, type: 3}
      propertyPath: m_Layer
      value: 3
      objectReference: {fileID: 0}
    - target: {fileID: 190866, guid: 0755a95e2e1b5f44e8226989fb76f2cf, type: 3}
      propertyPath: m_IsActive
      value: 0
      objectReference: {fileID: 0}
    - target: {fileID: 191150, guid: 0755a95e2e1b5f44e8226989fb76f2cf, type: 3}
      propertyPath: m_Layer
      value: 3
      objectReference: {fileID: 0}
    - target: {fileID: 191432, guid: 0755a95e2e1b5f44e8226989fb76f2cf, type: 3}
      propertyPath: m_Layer
      value: 3
      objectReference: {fileID: 0}
    - target: {fileID: 191432, guid: 0755a95e2e1b5f44e8226989fb76f2cf, type: 3}
      propertyPath: m_IsActive
      value: 0
      objectReference: {fileID: 0}
    - target: {fileID: 191582, guid: 0755a95e2e1b5f44e8226989fb76f2cf, type: 3}
      propertyPath: m_Layer
      value: 3
      objectReference: {fileID: 0}
    - target: {fileID: 191582, guid: 0755a95e2e1b5f44e8226989fb76f2cf, type: 3}
      propertyPath: m_IsActive
      value: 0
      objectReference: {fileID: 0}
    - target: {fileID: 192024, guid: 0755a95e2e1b5f44e8226989fb76f2cf, type: 3}
      propertyPath: m_Layer
      value: 3
      objectReference: {fileID: 0}
    - target: {fileID: 192024, guid: 0755a95e2e1b5f44e8226989fb76f2cf, type: 3}
      propertyPath: m_IsActive
      value: 0
      objectReference: {fileID: 0}
    - target: {fileID: 192584, guid: 0755a95e2e1b5f44e8226989fb76f2cf, type: 3}
      propertyPath: m_Layer
      value: 3
      objectReference: {fileID: 0}
    - target: {fileID: 192584, guid: 0755a95e2e1b5f44e8226989fb76f2cf, type: 3}
      propertyPath: m_IsActive
      value: 0
      objectReference: {fileID: 0}
    - target: {fileID: 192640, guid: 0755a95e2e1b5f44e8226989fb76f2cf, type: 3}
      propertyPath: m_Layer
      value: 3
      objectReference: {fileID: 0}
    - target: {fileID: 192640, guid: 0755a95e2e1b5f44e8226989fb76f2cf, type: 3}
      propertyPath: m_IsActive
      value: 0
      objectReference: {fileID: 0}
    - target: {fileID: 192724, guid: 0755a95e2e1b5f44e8226989fb76f2cf, type: 3}
      propertyPath: m_Layer
      value: 3
      objectReference: {fileID: 0}
    - target: {fileID: 193622, guid: 0755a95e2e1b5f44e8226989fb76f2cf, type: 3}
      propertyPath: m_Layer
      value: 3
      objectReference: {fileID: 0}
    - target: {fileID: 193684, guid: 0755a95e2e1b5f44e8226989fb76f2cf, type: 3}
      propertyPath: m_Layer
      value: 3
      objectReference: {fileID: 0}
    - target: {fileID: 193684, guid: 0755a95e2e1b5f44e8226989fb76f2cf, type: 3}
      propertyPath: m_IsActive
      value: 1
      objectReference: {fileID: 0}
    - target: {fileID: 194224, guid: 0755a95e2e1b5f44e8226989fb76f2cf, type: 3}
      propertyPath: m_Layer
      value: 3
      objectReference: {fileID: 0}
    - target: {fileID: 194224, guid: 0755a95e2e1b5f44e8226989fb76f2cf, type: 3}
      propertyPath: m_IsActive
      value: 0
      objectReference: {fileID: 0}
    - target: {fileID: 194504, guid: 0755a95e2e1b5f44e8226989fb76f2cf, type: 3}
      propertyPath: m_Layer
      value: 3
      objectReference: {fileID: 0}
    - target: {fileID: 195652, guid: 0755a95e2e1b5f44e8226989fb76f2cf, type: 3}
      propertyPath: m_Layer
      value: 3
      objectReference: {fileID: 0}
    - target: {fileID: 196160, guid: 0755a95e2e1b5f44e8226989fb76f2cf, type: 3}
      propertyPath: m_Layer
      value: 3
      objectReference: {fileID: 0}
    - target: {fileID: 196160, guid: 0755a95e2e1b5f44e8226989fb76f2cf, type: 3}
      propertyPath: m_IsActive
      value: 0
      objectReference: {fileID: 0}
    - target: {fileID: 196162, guid: 0755a95e2e1b5f44e8226989fb76f2cf, type: 3}
      propertyPath: m_Layer
      value: 3
      objectReference: {fileID: 0}
    - target: {fileID: 196404, guid: 0755a95e2e1b5f44e8226989fb76f2cf, type: 3}
      propertyPath: m_Layer
      value: 3
      objectReference: {fileID: 0}
    - target: {fileID: 196404, guid: 0755a95e2e1b5f44e8226989fb76f2cf, type: 3}
      propertyPath: m_IsActive
      value: 0
      objectReference: {fileID: 0}
    - target: {fileID: 196950, guid: 0755a95e2e1b5f44e8226989fb76f2cf, type: 3}
      propertyPath: m_Layer
      value: 3
      objectReference: {fileID: 0}
    - target: {fileID: 197194, guid: 0755a95e2e1b5f44e8226989fb76f2cf, type: 3}
      propertyPath: m_Layer
      value: 3
      objectReference: {fileID: 0}
    - target: {fileID: 197288, guid: 0755a95e2e1b5f44e8226989fb76f2cf, type: 3}
      propertyPath: m_Layer
      value: 3
      objectReference: {fileID: 0}
    - target: {fileID: 197310, guid: 0755a95e2e1b5f44e8226989fb76f2cf, type: 3}
      propertyPath: m_Layer
      value: 3
      objectReference: {fileID: 0}
    - target: {fileID: 197806, guid: 0755a95e2e1b5f44e8226989fb76f2cf, type: 3}
      propertyPath: m_Layer
      value: 3
      objectReference: {fileID: 0}
    - target: {fileID: 198044, guid: 0755a95e2e1b5f44e8226989fb76f2cf, type: 3}
      propertyPath: m_Layer
      value: 3
      objectReference: {fileID: 0}
    - target: {fileID: 198470, guid: 0755a95e2e1b5f44e8226989fb76f2cf, type: 3}
      propertyPath: m_Layer
      value: 3
      objectReference: {fileID: 0}
    - target: {fileID: 199586, guid: 0755a95e2e1b5f44e8226989fb76f2cf, type: 3}
      propertyPath: m_Layer
      value: 3
      objectReference: {fileID: 0}
    - target: {fileID: 199842, guid: 0755a95e2e1b5f44e8226989fb76f2cf, type: 3}
      propertyPath: m_Layer
      value: 3
      objectReference: {fileID: 0}
    - target: {fileID: 455156, guid: 0755a95e2e1b5f44e8226989fb76f2cf, type: 3}
      propertyPath: m_RootOrder
      value: 0
      objectReference: {fileID: 0}
    - target: {fileID: 455156, guid: 0755a95e2e1b5f44e8226989fb76f2cf, type: 3}
      propertyPath: m_LocalScale.x
      value: 0.41569
      objectReference: {fileID: 0}
    - target: {fileID: 455156, guid: 0755a95e2e1b5f44e8226989fb76f2cf, type: 3}
      propertyPath: m_LocalScale.y
      value: 0.41569
      objectReference: {fileID: 0}
    - target: {fileID: 455156, guid: 0755a95e2e1b5f44e8226989fb76f2cf, type: 3}
      propertyPath: m_LocalScale.z
      value: 0.41569
      objectReference: {fileID: 0}
    - target: {fileID: 455156, guid: 0755a95e2e1b5f44e8226989fb76f2cf, type: 3}
      propertyPath: m_LocalPosition.x
      value: 0
      objectReference: {fileID: 0}
    - target: {fileID: 455156, guid: 0755a95e2e1b5f44e8226989fb76f2cf, type: 3}
      propertyPath: m_LocalPosition.y
      value: 0.504
      objectReference: {fileID: 0}
    - target: {fileID: 455156, guid: 0755a95e2e1b5f44e8226989fb76f2cf, type: 3}
      propertyPath: m_LocalPosition.z
      value: -0.103
      objectReference: {fileID: 0}
    - target: {fileID: 455156, guid: 0755a95e2e1b5f44e8226989fb76f2cf, type: 3}
      propertyPath: m_LocalRotation.w
      value: 1
      objectReference: {fileID: 0}
    - target: {fileID: 455156, guid: 0755a95e2e1b5f44e8226989fb76f2cf, type: 3}
      propertyPath: m_LocalRotation.x
      value: -0
      objectReference: {fileID: 0}
    - target: {fileID: 455156, guid: 0755a95e2e1b5f44e8226989fb76f2cf, type: 3}
      propertyPath: m_LocalRotation.y
      value: -0
      objectReference: {fileID: 0}
    - target: {fileID: 455156, guid: 0755a95e2e1b5f44e8226989fb76f2cf, type: 3}
      propertyPath: m_LocalRotation.z
      value: -0
      objectReference: {fileID: 0}
    - target: {fileID: 455156, guid: 0755a95e2e1b5f44e8226989fb76f2cf, type: 3}
      propertyPath: m_LocalEulerAnglesHint.x
      value: 0
      objectReference: {fileID: 0}
    - target: {fileID: 455156, guid: 0755a95e2e1b5f44e8226989fb76f2cf, type: 3}
      propertyPath: m_LocalEulerAnglesHint.y
      value: 0
      objectReference: {fileID: 0}
    - target: {fileID: 455156, guid: 0755a95e2e1b5f44e8226989fb76f2cf, type: 3}
      propertyPath: m_LocalEulerAnglesHint.z
      value: 0
      objectReference: {fileID: 0}
    - target: {fileID: 2337538, guid: 0755a95e2e1b5f44e8226989fb76f2cf, type: 3}
      propertyPath: m_Materials.Array.data[0]
      value: 
      objectReference: {fileID: 2100000, guid: e78e5bfda7d576847bbf434f8dcba27a, type: 2}
    - target: {fileID: 9500222, guid: 0755a95e2e1b5f44e8226989fb76f2cf, type: 3}
      propertyPath: m_Controller
      value: 
      objectReference: {fileID: 9100000, guid: d8edbc37f9baf6640b41ce2e29912f93, type: 2}
    - target: {fileID: 9500222, guid: 0755a95e2e1b5f44e8226989fb76f2cf, type: 3}
      propertyPath: m_ApplyRootMotion
      value: 0
      objectReference: {fileID: 0}
    - target: {fileID: 13718658, guid: 0755a95e2e1b5f44e8226989fb76f2cf, type: 3}
      propertyPath: m_Materials.Array.data[0]
      value: 
      objectReference: {fileID: 2100000, guid: e78e5bfda7d576847bbf434f8dcba27a, type: 2}
    - target: {fileID: 110564200289546149, guid: 0755a95e2e1b5f44e8226989fb76f2cf, type: 3}
      propertyPath: m_Layer
      value: 3
      objectReference: {fileID: 0}
    - target: {fileID: 110564200289546149, guid: 0755a95e2e1b5f44e8226989fb76f2cf, type: 3}
      propertyPath: m_IsActive
      value: 0
      objectReference: {fileID: 0}
    - target: {fileID: 2081666292200270056, guid: 0755a95e2e1b5f44e8226989fb76f2cf, type: 3}
      propertyPath: m_Layer
      value: 3
      objectReference: {fileID: 0}
    - target: {fileID: 2081666292200270056, guid: 0755a95e2e1b5f44e8226989fb76f2cf, type: 3}
      propertyPath: m_IsActive
      value: 0
      objectReference: {fileID: 0}
    - target: {fileID: 2484626275663334296, guid: 0755a95e2e1b5f44e8226989fb76f2cf, type: 3}
      propertyPath: m_Layer
      value: 3
      objectReference: {fileID: 0}
    - target: {fileID: 2914035546758819915, guid: 0755a95e2e1b5f44e8226989fb76f2cf, type: 3}
      propertyPath: m_Layer
      value: 3
      objectReference: {fileID: 0}
    - target: {fileID: 3004906408121589271, guid: 0755a95e2e1b5f44e8226989fb76f2cf, type: 3}
      propertyPath: m_Layer
      value: 3
      objectReference: {fileID: 0}
    - target: {fileID: 3917592043830832438, guid: 0755a95e2e1b5f44e8226989fb76f2cf, type: 3}
      propertyPath: m_Layer
      value: 3
      objectReference: {fileID: 0}
    - target: {fileID: 4030414961116677618, guid: 0755a95e2e1b5f44e8226989fb76f2cf, type: 3}
      propertyPath: m_Layer
      value: 3
      objectReference: {fileID: 0}
    - target: {fileID: 4030414961116677618, guid: 0755a95e2e1b5f44e8226989fb76f2cf, type: 3}
      propertyPath: m_IsActive
      value: 0
      objectReference: {fileID: 0}
    - target: {fileID: 4142081213031076394, guid: 0755a95e2e1b5f44e8226989fb76f2cf, type: 3}
      propertyPath: m_Layer
      value: 3
      objectReference: {fileID: 0}
    - target: {fileID: 4142081213031076394, guid: 0755a95e2e1b5f44e8226989fb76f2cf, type: 3}
      propertyPath: m_IsActive
      value: 0
      objectReference: {fileID: 0}
    - target: {fileID: 4820462216605991773, guid: 0755a95e2e1b5f44e8226989fb76f2cf, type: 3}
      propertyPath: m_Layer
      value: 3
      objectReference: {fileID: 0}
    - target: {fileID: 4964050166187208810, guid: 0755a95e2e1b5f44e8226989fb76f2cf, type: 3}
      propertyPath: m_Layer
      value: 3
      objectReference: {fileID: 0}
    - target: {fileID: 6418162035217320422, guid: 0755a95e2e1b5f44e8226989fb76f2cf, type: 3}
      propertyPath: m_Layer
      value: 3
      objectReference: {fileID: 0}
    - target: {fileID: 6526150779578201267, guid: 0755a95e2e1b5f44e8226989fb76f2cf, type: 3}
      propertyPath: m_Layer
      value: 3
      objectReference: {fileID: 0}
    - target: {fileID: 6608330348016327587, guid: 0755a95e2e1b5f44e8226989fb76f2cf, type: 3}
      propertyPath: m_Layer
      value: 3
      objectReference: {fileID: 0}
    - target: {fileID: 6608330348016327587, guid: 0755a95e2e1b5f44e8226989fb76f2cf, type: 3}
      propertyPath: m_IsActive
      value: 0
      objectReference: {fileID: 0}
    - target: {fileID: 6671004088267195109, guid: 0755a95e2e1b5f44e8226989fb76f2cf, type: 3}
      propertyPath: m_Layer
      value: 3
      objectReference: {fileID: 0}
    - target: {fileID: 6759406131624080747, guid: 0755a95e2e1b5f44e8226989fb76f2cf, type: 3}
      propertyPath: m_Layer
      value: 3
      objectReference: {fileID: 0}
    - target: {fileID: 6941910609093209410, guid: 0755a95e2e1b5f44e8226989fb76f2cf, type: 3}
      propertyPath: m_Layer
      value: 3
      objectReference: {fileID: 0}
    - target: {fileID: 7279526336011241713, guid: 0755a95e2e1b5f44e8226989fb76f2cf, type: 3}
      propertyPath: m_Layer
      value: 3
      objectReference: {fileID: 0}
    - target: {fileID: 7931757550867678566, guid: 0755a95e2e1b5f44e8226989fb76f2cf, type: 3}
      propertyPath: m_Layer
      value: 3
      objectReference: {fileID: 0}
    m_RemovedComponents: []
  m_SourcePrefab: {fileID: 100100000, guid: 0755a95e2e1b5f44e8226989fb76f2cf, type: 3}
--- !u!1 &5008780765835909797 stripped
GameObject:
  m_CorrespondingSourceObject: {fileID: 123088, guid: 0755a95e2e1b5f44e8226989fb76f2cf, type: 3}
  m_PrefabInstance: {fileID: 5008780765835868789}
  m_PrefabAsset: {fileID: 0}
--- !u!4 &5008780765835709313 stripped
Transform:
  m_CorrespondingSourceObject: {fileID: 455156, guid: 0755a95e2e1b5f44e8226989fb76f2cf, type: 3}
  m_PrefabInstance: {fileID: 5008780765835868789}
  m_PrefabAsset: {fileID: 0}
--- !u!114 &7603874314907963000
MonoBehaviour:
  m_ObjectHideFlags: 0
  m_CorrespondingSourceObject: {fileID: 0}
  m_PrefabInstance: {fileID: 0}
  m_PrefabAsset: {fileID: 0}
  m_GameObject: {fileID: 5008780765835909797}
  m_Enabled: 1
  m_EditorHideFlags: 0
  m_Script: {fileID: 11500000, guid: cc78ee7b2372e0348a40ad87b6b0051e, type: 3}
  m_Name: 
  m_EditorClassIdentifier: 
--- !u!1001 &8047269314494750741
PrefabInstance:
  m_ObjectHideFlags: 0
  serializedVersion: 2
  m_Modification:
    m_TransformParent: {fileID: 1234965010594345750}
    m_Modifications:
    - target: {fileID: 7232945731123358090, guid: a6706d02406e36748895510855ad5bd7, type: 3}
      propertyPath: m_Name
      value: WarriorUnitEffectsContainer
      objectReference: {fileID: 0}
    - target: {fileID: 8583537681403329206, guid: a6706d02406e36748895510855ad5bd7, type: 3}
      propertyPath: m_RootOrder
      value: 2
      objectReference: {fileID: 0}
    - target: {fileID: 8583537681403329206, guid: a6706d02406e36748895510855ad5bd7, type: 3}
      propertyPath: m_LocalPosition.x
      value: -0.32955962
      objectReference: {fileID: 0}
    - target: {fileID: 8583537681403329206, guid: a6706d02406e36748895510855ad5bd7, type: 3}
      propertyPath: m_LocalPosition.y
      value: -0.0018584728
      objectReference: {fileID: 0}
    - target: {fileID: 8583537681403329206, guid: a6706d02406e36748895510855ad5bd7, type: 3}
      propertyPath: m_LocalPosition.z
      value: 1.5005379
      objectReference: {fileID: 0}
    - target: {fileID: 8583537681403329206, guid: a6706d02406e36748895510855ad5bd7, type: 3}
      propertyPath: m_LocalRotation.w
      value: 1
      objectReference: {fileID: 0}
    - target: {fileID: 8583537681403329206, guid: a6706d02406e36748895510855ad5bd7, type: 3}
      propertyPath: m_LocalRotation.x
      value: -0
      objectReference: {fileID: 0}
    - target: {fileID: 8583537681403329206, guid: a6706d02406e36748895510855ad5bd7, type: 3}
      propertyPath: m_LocalRotation.y
      value: -0
      objectReference: {fileID: 0}
    - target: {fileID: 8583537681403329206, guid: a6706d02406e36748895510855ad5bd7, type: 3}
      propertyPath: m_LocalRotation.z
      value: -0
      objectReference: {fileID: 0}
    - target: {fileID: 8583537681403329206, guid: a6706d02406e36748895510855ad5bd7, type: 3}
      propertyPath: m_LocalEulerAnglesHint.x
      value: 0
      objectReference: {fileID: 0}
    - target: {fileID: 8583537681403329206, guid: a6706d02406e36748895510855ad5bd7, type: 3}
      propertyPath: m_LocalEulerAnglesHint.y
      value: 0
      objectReference: {fileID: 0}
    - target: {fileID: 8583537681403329206, guid: a6706d02406e36748895510855ad5bd7, type: 3}
      propertyPath: m_LocalEulerAnglesHint.z
      value: 0
      objectReference: {fileID: 0}
    m_RemovedComponents: []
  m_SourcePrefab: {fileID: 100100000, guid: a6706d02406e36748895510855ad5bd7, type: 3}
--- !u!4 &1779905662690908835 stripped
Transform:
  m_CorrespondingSourceObject: {fileID: 8583537681403329206, guid: a6706d02406e36748895510855ad5bd7, type: 3}
  m_PrefabInstance: {fileID: 8047269314494750741}
  m_PrefabAsset: {fileID: 0}
--- !u!114 &7758437510267518269 stripped
MonoBehaviour:
  m_CorrespondingSourceObject: {fileID: 289959913945554216, guid: a6706d02406e36748895510855ad5bd7, type: 3}
  m_PrefabInstance: {fileID: 8047269314494750741}
  m_PrefabAsset: {fileID: 0}
  m_GameObject: {fileID: 0}
  m_Enabled: 1
  m_EditorHideFlags: 0
  m_Script: {fileID: 11500000, guid: fcf18c9766a69df4aa74e7c71b25e640, type: 3}
  m_Name: 
  m_EditorClassIdentifier: 
