%YAML 1.1
%TAG !u! tag:unity3d.com,2011:
--- !u!114 &11400000
MonoBehaviour:
  m_ObjectHideFlags: 0
  m_CorrespondingSourceObject: {fileID: 0}
  m_PrefabInstance: {fileID: 0}
  m_PrefabAsset: {fileID: 0}
  m_GameObject: {fileID: 0}
  m_Enabled: 1
  m_EditorHideFlags: 0
  m_Script: {fileID: 11500000, guid: 75d34cf01d34acc458da5ffdab5e6238, type: 3}
  m_Name: IAPData
  m_EditorClassIdentifier: 
  debug: 0
  useReceiptValidation: 1
  usePlaymaker: 0
  useBolt: 0
  useGameFlow: 0
  useForGooglePlay: 1
  useForAmazon: 0
  useForIos: 0
  useForMac: 0
  useForWindows: 0
  shopProducts:
  - productName: coins_pack_1
    productType: 0
    idGooglePlay: coins_pack_1
    idAmazon: 
    idIOS: 
    idMac: 
    idWindows: 
    value: 0
    localizedPriceString: '-'
    price: 0
    isoCurrencyCode: 
  - productName: coins_pack_2
    productType: 0
    idGooglePlay: coins_pack_2
    idAmazon: 
    idIOS: 
    idMac: 
    idWindows: 
    value: 0
    localizedPriceString: '-'
    price: 0
    isoCurrencyCode: 
  - productName: coins_pack_3
    productType: 0
    idGooglePlay: coins_pack_3
    idAmazon: 
    idIOS: 
    idMac: 
    idWindows: 
    value: 0
    localizedPriceString: '-'
    price: 0
    isoCurrencyCode: 
  - productName: coins_pack_4
    productType: 0
    idGooglePlay: coins_pack_4
    idAmazon: 
    idIOS: 
    idMac: 
    idWindows: 
    value: 0
    localizedPriceString: '-'
    price: 0
    isoCurrencyCode: 
