%YAML 1.1
%TAG !u! tag:unity3d.com,2011:
--- !u!114 &11400000
MonoBehaviour:
  m_ObjectHideFlags: 0
  m_CorrespondingSourceObject: {fileID: 0}
  m_PrefabInstance: {fileID: 0}
  m_PrefabAsset: {fileID: 0}
  m_GameObject: {fileID: 0}
  m_Enabled: 1
  m_EditorHideFlags: 0
  m_Script: {fileID: 11500000, guid: b661666dfdc1cbf44b3dffc16d4e4ddf, type: 3}
  m_Name: PrefabList
  m_EditorClassIdentifier: 
  unitWarriorList:
  - name:
      mTerm: Units/Mellee1
      mRTL_IgnoreArabicFix: 0
      mRTL_MaxLineLength: 0
      mRTL_ConvertNumbers: 0
      m_DontLocalizeParameters: 0
    unitType: 0
    unitRarity: 0
    prefab: {fileID: 8946952690140862010, guid: 7db3764b4bf295840b9c0682c37a715f, type: 3}
    previwPrefab: {fileID: 7682916214724032979, guid: 3c1ea570495d0634e9c9e3ea76c80ddf, type: 3}
  - name:
      mTerm: Units/Mellee2
      mRTL_IgnoreArabicFix: 0
      mRTL_MaxLineLength: 0
      mRTL_ConvertNumbers: 0
      m_DontLocalizeParameters: 0
    unitType: 0
    unitRarity: 1
    prefab: {fileID: 8946952690140862010, guid: 1e9781d0c33d6ce4bbd1fc01d6ff469a, type: 3}
    previwPrefab: {fileID: 7682916214724032979, guid: 4dff6b1d2ed81f04c975a514a3b81b76, type: 3}
  - name:
      mTerm: Units/Mellee3
      mRTL_IgnoreArabicFix: 0
      mRTL_MaxLineLength: 0
      mRTL_ConvertNumbers: 0
      m_DontLocalizeParameters: 0
    unitType: 0
    unitRarity: 2
    prefab: {fileID: 8946952690140862010, guid: f440cf911c7276c4489b989f7fa5c6c7, type: 3}
    previwPrefab: {fileID: 7682916214724032979, guid: db8e59e93a8ef0646bac74e39d11c775, type: 3}
  - name:
      mTerm: Units/Mellee4
      mRTL_IgnoreArabicFix: 0
      mRTL_MaxLineLength: 0
      mRTL_ConvertNumbers: 0
      m_DontLocalizeParameters: 0
    unitType: 0
    unitRarity: 3
    prefab: {fileID: 8946952690140862010, guid: 619128ad882d9b14499841d02f3ee941, type: 3}
    previwPrefab: {fileID: 7682916214724032979, guid: 7cb3960290a1e924a94aff0bbc97866b, type: 3}
  - name:
      mTerm: Units/Mellee5
      mRTL_IgnoreArabicFix: 0
      mRTL_MaxLineLength: 0
      mRTL_ConvertNumbers: 0
      m_DontLocalizeParameters: 0
    unitType: 0
    unitRarity: 4
    prefab: {fileID: 8946952690140862010, guid: e3f38829672290448b3dbe3f6340c5ca, type: 3}
    previwPrefab: {fileID: 7682916214724032979, guid: 59d24c8d762da184f9d8fb17c900e144, type: 3}
  - name:
      mTerm: Units/Mellee6
      mRTL_IgnoreArabicFix: 0
      mRTL_MaxLineLength: 0
      mRTL_ConvertNumbers: 0
      m_DontLocalizeParameters: 0
    unitType: 0
    unitRarity: 5
    prefab: {fileID: 8946952690140862010, guid: ea13c6caee1ef61489661a4201786963, type: 3}
    previwPrefab: {fileID: 7682916214724032979, guid: 435538698ae386849a04eb4bb71f4ac5, type: 3}
  - name:
      mTerm: Units/Mellee7
      mRTL_IgnoreArabicFix: 0
      mRTL_MaxLineLength: 0
      mRTL_ConvertNumbers: 0
      m_DontLocalizeParameters: 0
    unitType: 0
    unitRarity: 6
    prefab: {fileID: 8946952690140862010, guid: ded3af7b3afc4364086c132bc1caf222, type: 3}
    previwPrefab: {fileID: 7682916214724032979, guid: fa40e467d6eedd140be3561a3780a8d8, type: 3}
  - name:
      mTerm: Units/Archer1
      mRTL_IgnoreArabicFix: 0
      mRTL_MaxLineLength: 0
      mRTL_ConvertNumbers: 0
      m_DontLocalizeParameters: 0
    unitType: 1
    unitRarity: 0
    prefab: {fileID: 8946952690140862010, guid: fb013de6c551b874493651abd1d03d09, type: 3}
    previwPrefab: {fileID: 7682916214724032979, guid: 28769f0cf7c2a9c46b9aff987f2cd71c, type: 3}
  - name:
      mTerm: Units/Archer2
      mRTL_IgnoreArabicFix: 0
      mRTL_MaxLineLength: 0
      mRTL_ConvertNumbers: 0
      m_DontLocalizeParameters: 0
    unitType: 1
    unitRarity: 1
    prefab: {fileID: 8946952690140862010, guid: feb93362206d33e4fb1329cbefbc6a35, type: 3}
    previwPrefab: {fileID: 7682916214724032979, guid: 774262cf959624945a90ea48256c4fdd, type: 3}
  - name:
      mTerm: Units/Archer3
      mRTL_IgnoreArabicFix: 0
      mRTL_MaxLineLength: 0
      mRTL_ConvertNumbers: 0
      m_DontLocalizeParameters: 0
    unitType: 1
    unitRarity: 2
    prefab: {fileID: 8946952690140862010, guid: eb2ae00de53540b4ab93cd5c91e25fa5, type: 3}
    previwPrefab: {fileID: 7682916214724032979, guid: 642f3c7642a43a249a17c53a91e58990, type: 3}
  - name:
      mTerm: Units/Archer4
      mRTL_IgnoreArabicFix: 0
      mRTL_MaxLineLength: 0
      mRTL_ConvertNumbers: 0
      m_DontLocalizeParameters: 0
    unitType: 1
    unitRarity: 3
    prefab: {fileID: 8946952690140862010, guid: 19cdd7a84dabee945b67901df35e4a43, type: 3}
    previwPrefab: {fileID: 7682916214724032979, guid: e7c499e2308be9e41a4ebd57a3007493, type: 3}
  - name:
      mTerm: Units/Archer5
      mRTL_IgnoreArabicFix: 0
      mRTL_MaxLineLength: 0
      mRTL_ConvertNumbers: 0
      m_DontLocalizeParameters: 0
    unitType: 1
    unitRarity: 4
    prefab: {fileID: 8946952690140862010, guid: baa2ace21acc9004195a4c86effd91ee, type: 3}
    previwPrefab: {fileID: 7682916214724032979, guid: 6ab28a7475c2e9947a8e66dbe546852c, type: 3}
  - name:
      mTerm: Units/Archer6
      mRTL_IgnoreArabicFix: 0
      mRTL_MaxLineLength: 0
      mRTL_ConvertNumbers: 0
      m_DontLocalizeParameters: 0
    unitType: 1
    unitRarity: 5
    prefab: {fileID: 8946952690140862010, guid: 827ef52a498107f47ba3d086afd81032, type: 3}
    previwPrefab: {fileID: 7682916214724032979, guid: a65b96b22a9321846b4463a5c3478917, type: 3}
  - name:
      mTerm: Units/Archer7
      mRTL_IgnoreArabicFix: 0
      mRTL_MaxLineLength: 0
      mRTL_ConvertNumbers: 0
      m_DontLocalizeParameters: 0
    unitType: 1
    unitRarity: 6
    prefab: {fileID: 8946952690140862010, guid: f4168682ccd400c469687abb23936363, type: 3}
    previwPrefab: {fileID: 7682916214724032979, guid: 0f0dcf52ec26d01418b12f8d517d0209, type: 3}
  - name:
      mTerm: Units/Mage1
      mRTL_IgnoreArabicFix: 0
      mRTL_MaxLineLength: 0
      mRTL_ConvertNumbers: 0
      m_DontLocalizeParameters: 0
    unitType: 2
    unitRarity: 0
    prefab: {fileID: 8946952690140862010, guid: 24419d9cd021c4a47b9c1a83d6f4a731, type: 3}
    previwPrefab: {fileID: 7682916214724032979, guid: c87ac3d8288d67147a38e0e5f0e4c18a, type: 3}
  - name:
      mTerm: Units/Mage2
      mRTL_IgnoreArabicFix: 0
      mRTL_MaxLineLength: 0
      mRTL_ConvertNumbers: 0
      m_DontLocalizeParameters: 0
    unitType: 2
    unitRarity: 1
    prefab: {fileID: 8946952690140862010, guid: 63251085b23d8ea419d1dc32ae81b1b5, type: 3}
    previwPrefab: {fileID: 7682916214724032979, guid: 87dd14fd0d6f99948942c60ce62a4448, type: 3}
  - name:
      mTerm: Units/Mage3
      mRTL_IgnoreArabicFix: 0
      mRTL_MaxLineLength: 0
      mRTL_ConvertNumbers: 0
      m_DontLocalizeParameters: 0
    unitType: 2
    unitRarity: 2
    prefab: {fileID: 8946952690140862010, guid: 3f2da2e3d852a07459abd9cd51e0c472, type: 3}
    previwPrefab: {fileID: 7682916214724032979, guid: d227b9f1a3088954e9f1d6dd9fabe140, type: 3}
  - name:
      mTerm: Units/Mage4
      mRTL_IgnoreArabicFix: 0
      mRTL_MaxLineLength: 0
      mRTL_ConvertNumbers: 0
      m_DontLocalizeParameters: 0
    unitType: 2
    unitRarity: 3
    prefab: {fileID: 8946952690140862010, guid: 0768274ed6f8e92488630583da6756c1, type: 3}
    previwPrefab: {fileID: 7682916214724032979, guid: 32ac9535f88d4ad49bda9fc196cdc7a5, type: 3}
  - name:
      mTerm: Units/Mage5
      mRTL_IgnoreArabicFix: 0
      mRTL_MaxLineLength: 0
      mRTL_ConvertNumbers: 0
      m_DontLocalizeParameters: 0
    unitType: 2
    unitRarity: 4
    prefab: {fileID: 8946952690140862010, guid: b2735405974104b4388ba478403ad717, type: 3}
    previwPrefab: {fileID: 7682916214724032979, guid: 6d4559de4478ece42880defa9c554112, type: 3}
  - name:
      mTerm: Units/Mage6
      mRTL_IgnoreArabicFix: 0
      mRTL_MaxLineLength: 0
      mRTL_ConvertNumbers: 0
      m_DontLocalizeParameters: 0
    unitType: 2
    unitRarity: 5
    prefab: {fileID: 8946952690140862010, guid: 2651b27c010558440aec480328996405, type: 3}
    previwPrefab: {fileID: 7682916214724032979, guid: 3af01ea377ddd6048884cb3d95d2ac21, type: 3}
  - name:
      mTerm: Units/Mage7
      mRTL_IgnoreArabicFix: 0
      mRTL_MaxLineLength: 0
      mRTL_ConvertNumbers: 0
      m_DontLocalizeParameters: 0
    unitType: 2
    unitRarity: 6
    prefab: {fileID: 8946952690140862010, guid: 843d0fb7cbcfc8243978166969604c8b, type: 3}
    previwPrefab: {fileID: 7682916214724032979, guid: 20a2010bb418614428a9ce1879a024f4, type: 3}
  - name:
      mTerm: Units/Catapult1
      mRTL_IgnoreArabicFix: 0
      mRTL_MaxLineLength: 0
      mRTL_ConvertNumbers: 0
      m_DontLocalizeParameters: 0
    unitType: 3
    unitRarity: 0
    prefab: {fileID: 8946952690140862010, guid: 62639bc89658c9b4c965969827cd86b2, type: 3}
    previwPrefab: {fileID: 7682916214724032979, guid: e4584119acd401b44a0cc0ccf4af2d84, type: 3}
  - name:
      mTerm: Units/Catapult2
      mRTL_IgnoreArabicFix: 0
      mRTL_MaxLineLength: 0
      mRTL_ConvertNumbers: 0
      m_DontLocalizeParameters: 0
    unitType: 3
    unitRarity: 1
    prefab: {fileID: 8946952690140862010, guid: 6de5ef4376286ba4a8c829f3c67b1e2a, type: 3}
    previwPrefab: {fileID: 7682916214724032979, guid: 925d04483e0c5c546be23942cb03d3d2, type: 3}
  - name:
      mTerm: Units/Catapult3
      mRTL_IgnoreArabicFix: 0
      mRTL_MaxLineLength: 0
      mRTL_ConvertNumbers: 0
      m_DontLocalizeParameters: 0
    unitType: 3
    unitRarity: 2
    prefab: {fileID: 8946952690140862010, guid: 10189b4dbaec5d0409ce0f18685db4da, type: 3}
    previwPrefab: {fileID: 7682916214724032979, guid: 423ac4d569ff6ed41882465d837d83a0, type: 3}
  - name:
      mTerm: Units/Catapult4
      mRTL_IgnoreArabicFix: 0
      mRTL_MaxLineLength: 0
      mRTL_ConvertNumbers: 0
      m_DontLocalizeParameters: 0
    unitType: 3
    unitRarity: 3
    prefab: {fileID: 8946952690140862010, guid: 176f068625627404e911ef80f3227b28, type: 3}
    previwPrefab: {fileID: 7682916214724032979, guid: 5535311787de0424aaf0ad1f14e40a54, type: 3}
  - name:
      mTerm: Units/Catapult5
      mRTL_IgnoreArabicFix: 0
      mRTL_MaxLineLength: 0
      mRTL_ConvertNumbers: 0
      m_DontLocalizeParameters: 0
    unitType: 3
    unitRarity: 4
    prefab: {fileID: 8946952690140862010, guid: 23c708525388e334faf1b916ed553993, type: 3}
    previwPrefab: {fileID: 7682916214724032979, guid: 105d718eef55ffd4cba9c40c1f5b7c1c, type: 3}
  - name:
      mTerm: Units/Catapult6
      mRTL_IgnoreArabicFix: 0
      mRTL_MaxLineLength: 0
      mRTL_ConvertNumbers: 0
      m_DontLocalizeParameters: 0
    unitType: 3
    unitRarity: 5
    prefab: {fileID: 8946952690140862010, guid: 4f4b7d4682eab32408abdae4fec9c5d8, type: 3}
    previwPrefab: {fileID: 7682916214724032979, guid: 5f4760217c949a94bb3696f658b592bf, type: 3}
  - name:
      mTerm: Units/Catapult7
      mRTL_IgnoreArabicFix: 0
      mRTL_MaxLineLength: 0
      mRTL_ConvertNumbers: 0
      m_DontLocalizeParameters: 0
    unitType: 3
    unitRarity: 6
    prefab: {fileID: 8946952690140862010, guid: a80bc53294ae39848bd93a44a0a87668, type: 3}
    previwPrefab: {fileID: 7682916214724032979, guid: f6958dcaab254784b882d411eb063818, type: 3}
